<svg width="512" height="512" xmlns="http://www.w3.org/2000/svg">

 <g>
  <title>background</title>
  <rect fill="none" id="canvas_background" height="402" width="582" y="-1" x="-1"/>
 </g>
 <g>
  <title>Layer 1</title>
  <circle fill="#03a9f4" r="256" id="XMLID_518_" cy="256" cx="256" class="st0"/>
  <path fill="#0487f2" id="XMLID_410_" d="m505.6,313.3l-89.6,-91.3l-7.5,0.2c-0.4,-0.5 -58.3,-58.3 -58.9,-58.9c-15.7,-16.3 -35.5,-28.2 -57.4,-34.5c-0.1,0 -0.2,-0.1 -0.3,-0.1c-22.3,-6.4 -45.9,-6.7 -68.3,-0.9c-21.8,5.7 -41.9,17 -58,32.7c-5.8,5.6 -5.9,14.8 -0.3,20.6c0.4,0.4 61.4,61.4 61.6,61.6c0.7,2.8 33.4,14.8 44.5,26.5c5.5,5.8 -4.1,24.7 -6.5,22.1c-1.6,-1.8 -8,0.8 -8,0.4c-22,6.3 -14.7,-16 -12.7,-17.2l-21.2,0l-0.1,0.4c0,1.2 -78.4,-75.2 -78.4,-75.2l-48.5,90.7l217.9,215c95.1,-22 169.9,-97 191.7,-192.1z" class="st1"/>
  <path fill="#ffffff" id="XMLID_191_" d="m382.4,223.1c-5.1,-21 -15.3,-40.4 -29.8,-56.5c-16.2,-18 -37.1,-31.1 -60.5,-37.8c-0.1,0 -0.2,-0.1 -0.3,-0.1c-22.3,-6.4 -45.9,-6.7 -68.3,-0.9c-21.8,5.7 -41.9,17 -58,32.7c-5.8,5.6 -5.9,14.8 -0.3,20.6c5.6,5.8 14.8,5.9 20.6,0.3c25.9,-25.1 63.4,-34.6 98.1,-24.7c0.1,0 0.2,0 0.2,0.1c33.1,9.5 58.6,34.8 68.5,67.3l-39.3,1.2l54.2,87.4l48.5,-90.7l-33.6,1.1z" class="st2"/>
  <path fill="#ffffff" id="XMLID_190_" d="m326.5,330.4c-25.9,25.3 -63.6,34.9 -98.3,25c-33.1,-9.5 -58.6,-34.7 -68.7,-67.1l39.3,-1.3l-54.4,-87.3l-48.4,90.7l33.6,-1.1c5.1,20.9 15.4,40.3 29.9,56.4c16.3,18 37.2,31 60.6,37.7c22.5,6.4 46.2,6.7 68.7,0.8c21.8,-5.7 41.9,-17.1 58,-32.9c5.7,-5.6 5.8,-14.8 0.2,-20.6c-5.6,-5.8 -14.8,-5.9 -20.5,-0.3z" class="st2"/>
  <path fill="#ffffff" id="XMLID_182_" d="m257.3,288.1c-4,0 -7.2,-1 -9.6,-3.2c-2.4,-2.1 -3.6,-5.6 -3.6,-10.5l-21.2,0l-0.1,0.4c-0.2,9.3 2.5,16.4 8,21.2c5.6,4.8 12.7,7.5 21.3,8.3l0,12.9l10.2,0l0,-12.9c8.3,-0.8 14.8,-3.4 19.5,-8c4.8,-4.5 7.1,-10.6 7.1,-18.1c0,-8.1 -2.5,-14.5 -7.4,-19.1c-5,-4.6 -12.4,-8.5 -22.3,-11.7c-4.8,-2.3 -7.9,-4.3 -9.5,-5.9c-1.6,-1.7 -2.3,-4 -2.3,-6.8c0,-3 0.7,-5.5 2.2,-7.3c1.5,-1.8 3.9,-2.7 7.5,-2.7c3.4,0 6,1 7.9,3.1c1.9,2.1 2.8,5.2 2.8,9.5l21.2,0l0.1,-0.3c0.1,-7.8 -2.1,-14.3 -6.7,-19.2c-4.6,-5 -10.9,-8 -18.9,-9.1l0,-13.8l-10.2,0l0,13.6c-8.5,0.7 -15.2,3.4 -20.2,8.1c-5,4.7 -7.5,10.7 -7.5,18c0,8.1 2.4,14.4 7.2,18.6c4.8,4.3 12.3,8.2 22.5,11.8c4.6,1.9 7.8,3.8 9.4,5.6c1.6,1.8 2.5,4.4 2.5,7.8c0,3 -0.8,5.3 -2.4,7.1c-1.4,1.7 -4,2.6 -7.5,2.6z" class="st2"/>
 </g>
</svg>